{
	"extends": [ "tslint:latest", "tslint-config-prettier", "tslint-immutable" ],
	"rules": {
		"interface-name": [ true, "never-prefix" ],
		"no-implicit-dependencies": [ true, "dev" ],
		"no-var-keyword": true,
		"no-parameter-reassignment": true,
		"typedef": [ true, "call-signature" ],
		"readonly-keyword": true,
		"readonly-array": true,
		"no-object-mutation": true,
		"no-delete": true,
		"no-method-signature": true,
		"no-mixed-interface": true,
		"no-if-statement": true
	}
}
